66728 676795
716755 270975
765321 779107
161216 229654
147591 143090
731444 353928
675340 489915
566672 680988
343427 258817
244479 507431
292813 431561
509116 659106
117930 672616
731703 916232
629713 757887
107813 422171
107288 987719
190482 324115
45550 476493
160115 661949
508770 391514
412484 313737
426480 405682
99157 27997
622462 751006
750213 520709
189832 769668
239508 410975
243631 142167
797887 774240
331850 256878
673655 380453
756284 998600
133035 517414
5369 143895
20875 20614
718079 962549
811224 794988
750767 602756
106566 439385
809690 245671
499890 760712
819327 671071
660266 555279
372345 996727
770179 443815
445746 374492
373676 701567
723515 893783
655626 939118
137324 874040
370554 638264
600334 628357
383184 536046
147537 176811
703500 41245
909146 967219
209171 148116
556249 220607
569928 278438
984866 162558
285737 508944
972819 749900
802787 690431
143188 842212
837554 736866
828370 39488
494517 647883
284271 734754
480153 632971
944254 400708
398439 322150
293497 79123
640004 450426
731002 674663
98384 721683
373134 898257
52451 444340
21228 742878
287647 905992
741330 738448
832442 965755
213250 503465
285495 269283
789307 453771
990986 156564
518926 244602
496118 901035
659198 963901
961012 803397
262387 721716
61344 882603
241843 745508
638531 70586
778023 592976
565100 444680
817405 82199
782216 105373
819609 135582
221280 974817
398982 972798
137673 134541
321779 233042
359366 553204
595978 113816
952227 461207
59427 117973
248760 552766
607173 508224
268321 325381
868035 544814
676242 724773
58077 416430
130633 393700
292886 156561
954953 327704
786892 249679
817513 834269
31974 250793
588256 563251
156591 43757
591959 337247
680347 490275
719904 540106
656465 423244
173398 723974
627276 944338
696890 50141
912545 723653
389141 644387
330784 687342
223859 803043
473820 928256
164853 567778
204543 728252
384735 119791
529070 47025
332851 651201
634165 475262
610122 868343
620015 432349
405889 571536
556417 415710
46123 827503
359479 844827
564796 917256
78215 517226
12171 361241
466556 22826
102378 934558
309138 967471
82350 505055
481649 723856
285005 319411
60872 462837
629340 573872
561120 817324
309157 684222
643286 770354
734765 3779
636736 251830
71560 766601
966921 490883
470294 310968
133768 79296
297895 489033
914531 361735
771915 228839
670087 654577
260528 617417
580642 339449
394145 929487
417160 943944
237214 982396
558700 350722
172303 408354
549949 370338
361205 132486
243108 140474
792374 196147
808883 671455
929280 237498
477418 347204
293882 9079
580228 235665
806642 833900
750877 22772
747645 131160
306467 845205
722383 978449
23627 348390
22170 59130
904561 98355
121473 333421
12776 843486
459602 149802
37972 727320
603195 203936
961985 335620
105890 487687
367529 157230
179410 286755
457456 667288
658864 301152
133068 89906
10509 225678
351864 248385
917496 386831
840101 366308
542347 37589
407177 899323
404455 848724
355254 657170
460135 56597
852328 931687
628157 214294
85237 802195
776226 349798
795390 699164
662263 269787
943787 5338
105707 911115
300171 685762
153567 813119
998365 665692
246037 925684
498284 657519
637707 13643
896038 774118
409953 61866
330553 99902
451288 129916
61494 220093
911943 892175
75881 152046
830870 831688
699565 463903
207195 240972
964879 492253
894211 60571
571288 62762
625966 362878
20308 810631
278603 893138
202361 287185
603814 695395
124238 795312
949978 517947
155237 30875
509484 384953
302273 923613
329971 601157
464185 28820
866290 513303
153430 473706
55314 720155
621242 821544
945690 886866
806354 980080
757292 410144
471063 792630
588579 919998
131260 234050
301591 180230
379151 86905
621755 27695
440722 332667
322391 309971
150043 99018
740792 521046
740209 659983
239142 445101
582785 393801
724542 62956
970645 717006
322311 226304
141119 205127
477859 538646
118761 149167
16255 816853
351623 231344
239220 138223
232752 909444
735098 605209
309264 60310
400195 169146
284982 592741
125816 646071
355086 552926
309444 421469
146197 718853
95740 320873
209684 320586
25616 578832
954073 536164
597427 144221
489973 955650
87536 497651
641554 580069
185638 859080
