978010 363469 525
889053 326880 525
344867 787185 509
850549 450406 525
799063 126504 509
274125 19266 443
675912 483435 509
108059 101929 354
2815 447450 449
759528 906433 525
139375 976301 525
302840 196419 443
987658 536247 525
444328 29197 449
978910 347568 525
325101 469398 449
90988 818112 509
484416 503867 426
997573 102860 525
302703 312663 384
820791 258146 509
655142 60771 509
721846 787194 468
201243 546064 470
314533 559178 470
970829 827585 525
641139 522515 509
410392 792422 509
426031 470922 444
816008 628638 504
93680 522622 470
65775 853915 525
435363 939062 525
174040 334653 443
366715 624399 470
939025 81969 525
679469 247574 509
646011 270374 509
300130 160967 443
598754 991556 525
427819 791689 509
727570 285587 509
413859 646072 509
556373 296896 470
794644 53934 509
777653 47622 509
963690 215659 525
329474 62208 443
17938 551112 470
875102 241558 525
215478 815257 509
230203 769147 509
593962 159289 470
207381 124909 383
642743 847436 525
781982 226917 509
718920 695708 504
889563 585258 525
703760 131076 509
588260 580726 434
450605 476877 444
611490 185186 470
255409 725578 509
247810 262560 363
164227 900289 525
73923 950542 525
348224 350823 366
250382 589377 470
198597 370956 443
708769 309829 509
632661 133256 509
299914 325711 384
56285 290195 443
236674 512613 470
651136 96429 509
784612 956186 525
459025 324107 449
371599 711431 509
558053 270637 470
164115 848355 525
64070 918401 525
581459 260189 470
115343 584024 470
169548 575046 470
403861 688223 509
913748 914665 352
296127 463053 449
676639 546475 509
216740 580467 470
559723 501265 470
402157 241762 441
442459 276007 449
313121 31617 443
736171 498986 509
656830 92558 509
11171 849809 525
929499 593473 525
968010 861603 507
837597 945572 525
695814 510166 509
137531 608900 470
180178 70177 383
209476 244969 443
147458 366432 443
41347 674261 509
424205 478568 444
510910 976101 525
607172 293496 470
176014 763911 509
657242 725088 504
426014 459632 400
172620 392527 443
683667 954543 525
128301 823792 509
564614 363209 470
787013 871908 525
204858 359863 443
750564 357033 509
438666 266437 449
179772 610058 470
325817 788612 509
28610 22875 308
388888 433122 449
624738 681009 509
977089 573708 525
503405 778301 509
705544 337099 509
441649 72599 449
492297 805434 509
507576 781230 509
158813 715407 509
202351 854641 525
44121 720374 509
676695 233837 509
376938 778460 509
209630 709719 509
326047 7431 443
709903 462771 509
555406 849386 525
910119 729753 525
317363 568786 470
139957 177570 383
462165 50038 449
19119 485418 449
134215 841581 525
260908 693260 509
46685 603440 470
728336 147292 509
674639 868255 525
129799 850788 525
400078 348706 436
459229 507527 444
574336 311911 470
94182 45291 351
112507 952299 525
428692 415204 418
918938 291369 525
826853 528832 509
175116 176707 334
268584 967149 525
218556 715372 509
261222 240718 363
812947 436330 509
467671 416744 444
12613 425552 449
306329 32029 443
637911 778498 504
422019 789087 509
399160 702668 509
210488 437455 449
963460 314687 525
699143 73635 509
652622 763052 504
248103 668947 509
508468 691541 509
586804 240878 470
731886 276208 509
774167 786737 437
317837 158117 443
603886 966619 525
169959 151147 383
368209 66220 443
699824 884479 525
800618 643529 504
275843 970631 525
494756 573610 470
154485 925220 525
471967 927532 525
34791 446625 449
814245 930978 525
292762 664787 509
103058 428960 449
839936 951565 507
592179 679829 509
998564 54883 525
468866 684850 509
246434 280123 407
228510 76598 386
716685 139040 509
348363 525867 470
255304 866159 525
488275 824097 509
594261 811537 509
396090 37784 443
136269 145879 375
356113 743047 509
95419 923805 525
274733 385293 441
311363 78831 443
76223 239227 443
510301 460019 444
398936 40635 443
694734 824866 504
316308 107500 443
253262 533671 470
222438 316466 443
651639 567762 509
411696 839440 525
859751 273540 525
635597 127021 509
777147 472345 509
577068 370330 470
848974 735823 525
730774 441414 509
66833 148672 375
568890 19758 470
