1832 4542
1778 1082
487 294
4780 3580
4704 377
4758 627
2504 1392
4366 3197
450 4476
4830 3118
2809 58
2268 1241
1161 3009
578 944
937 1013
257 3032
799 4719
3768 2291
3755 946
1983 1304
447 3525
756 972
1024 330
4428 323
4870 408
889 208
2087 4908
3774 1410
1683 3259
3499 2103
3699 1279
4226 285
1975 875
4487 121
2350 4115
1666 4448
2341 4631
3388 4519
4081 4691
1652 2452
3068 3455
4568 4396
2025 2185
1169 31
2721 2461
2157 205
812 181
3905 3560
56 2671
3878 3179
2586 349
4636 707
2905 3671
3251 4750
2682 3091
2557 4576
4197 3051
2289 505
522 3975
3939 961
1398 1498
3674 4177
3766 2262
2018 1243
3761 870
2423 3531
3539 336
4207 4575
2693 231
1237 3506
1021 1929
1187 2538
2202 2407
3802 565
3143 4033
9 3792
3874 2931
3311 3306
4753 3700
4501 2629
4970 4537
4114 284
2061 1092
1158 2871
2532 1280
2292 1431
2333 4500
4302 4754
1997 1580
2458 2092
4861 2793
1539 712
953 1408
2937 3376
1049 4382
19 3845
3780 389
3927 3607
580 2127
2963 1314
3615 1185
1731 3692
2737 3044
311 3005
957 1535
1332 1902
2681 4429
636 4042
1620 3227
2497 2105
3923 976
3697 4426
4191 988
1758 2839
3545 904
591 3221
4047 3321
3431 3079
2899 1111
2451 2180
3147 3285
2302 4571
2843 4274
3934 4699
18 1164
4155 4801
4522 3244
1301 4374
372 3776
1058 2288
1732 1035
2578 4167
1261 2870
246 3110
1933 2170
4098 3193
3582 671
3511 1551
4736 1238
4985 7
2700 1
4762 1660
2758 1476
2125 297
3856 2446
4769 2122
1326 3740
3141 2683
4076 2084
455 290
1050 459
2277 2712
4997 797
383 1242
1756 4241
3928 2626
2967 1742
55 4071
822 2499
655 2296
3102 3532
4062 4521
61 1518
1281 1588
4200 3578
4225 4971
4502 3925
452 3084
3960 725
1658 1597
4538 2045
622 1202
4987 1673
2110 310
1154 1672
2879 3696
2569 4438
2776 3859
4617 2645
2016 2718
1364 4523
1749 3471
4381 4171
4939 2456
1788 2
3169 3119
3421 2566
2162 2791
252 2669
3043 36
637 2166
2382 473
1932 3897
4140 4732
3572 2304
3670 3188
4 4960
1047 710
1564 2456
2833 635
