347395 140076 443
537959 947067 525
765749 343260 509
272047 700471 509
866226 748381 525
355716 147797 443
223111 880685 525
444359 58479 449
214826 920549 525
709909 410649 509
599422 424305 470
16578 226243 386
754274 999089 525
851570 154570 525
767803 269541 509
375609 146686 443
695700 359596 509
124247 627550 509
670800 73895 509
622335 711599 509
811222 372494 509
612548 126599 470
216491 705554 509
790999 387868 509
961821 803147 525
249833 249705 332
238198 383821 441
619644 893053 525
111742 589232 470
230747 93524 443
476118 370822 449
42879 756763 509
407473 122492 443
567504 593055 434
556882 155619 470
948031 572249 525
153675 463646 449
425452 843777 525
617207 255026 470
518045 131011 470
48063 381939 443
318942 456991 449
314976 859834 525
471100 187580 449
770678 391361 509
109852 57379 354
778937 463517 509
732521 319105 509
462038 790474 509
256498 775483 509
969824 984273 458
77302 319562 443
661776 774303 504
838918 85655 525
984226 603922 525
137411 654419 509
423372 416611 356
648213 465482 509
283498 422222 449
891152 102962 525
554075 641089 509
361076 571840 470
977176 758748 525
668329 370149 509
187386 262876 443
754485 451783 509
51922 711108 509
701025 730926 504
671442 606929 509
698872 13083 509
690432 385320 509
425611 339805 449
798320 66487 509
441482 817816 509
472021 675847 509
193280 766041 509
338632 129523 443
651114 310841 509
504330 394285 449
98850 943322 525
645790 284442 509
354517 351784 348
310715 274400 389
899711 685757 525
152211 22975 375
928046 581018 525
488454 303705 449
932797 781488 525
5665 194221 383
952819 858579 507
992458 957966 458
591637 271427 470
204831 257010 443
442802 231965 449
925740 494836 525
784728 108020 509
691486 643285 442
178867 427606 449
3591 485777 449
820377 370798 509
424936 95674 449
453848 137578 449
961344 898680 507
946273 614889 525
229544 657417 509
632856 699148 442
777512 248222 509
245888 153017 443
993601 178882 525
533886 373039 470
828767 485937 509
303589 858058 525
537964 342478 470
49386 611223 470
435767 319097 449
345399 72847 443
821143 84491 509
108832 19671 354
188925 190446 360
385734 875669 525
91810 704749 509
448833 280297 449
442534 867802 525
437365 981198 525
958924 618376 525
565174 885698 525
28208 97829 351
324269 719048 509
260060 859024 525
85847 961035 525
385032 767098 509
450981 435801 400
443856 705696 509
631455 723182 504
746221 76548 509
800486 933674 525
230824 583559 470
394635 723150 509
771378 775664 437
555491 73566 470
620739 715725 509
649814 651827 341
45463 439428 449
178251 986607 525
557061 443456 470
514567 48560 470
621016 940844 525
985647 499689 525
721411 721410 212
997251 620394 525
780391 503351 509
468910 153428 449
916400 170081 525
995908 611970 525
496969 625020 470
426850 410966 418
389705 309859 441
948299 318654 525
302196 632989 509
86514 188708 383
94416 896507 525
501455 228320 449
451886 392467 449
449736 228019 449
39468 153431 375
883862 686104 525
298812 964603 525
372071 577596 470
407717 676555 509
972096 109151 525
664119 67493 509
167171 974648 525
552489 290741 470
69507 395996 443
919498 611739 525
341654 430166 449
919280 956417 507
350892 480598 449
322227 787621 509
259233 588304 470
258624 689062 509
17623 270729 443
787386 69879 509
995960 2013 525
656286 92087 509
494449 725224 509
135688 642331 509
620377 697560 509
815057 412705 509
707364 668798 504
750523 455375 509
453016 226525 449
629294 808205 504
586572 12589 470
426570 384088 449
158410 517949 470
530483 701868 509
768478 723001 468
504155 954906 525
889240 180708 525
840016 551636 525
188687 332481 443
584903 824025 509
863710 656515 525
590995 755535 509
837375 55727 509
919538 576043 525
479684 798737 509
698647 949421 525
315920 620254 470
167940 760526 509
229097 553184 470
871503 568580 525
589971 985717 525
912380 913333 401
52344 871792 525
467584 190303 449
295269 441201 449
102662 592937 470
624309 431871 470
5447 843753 525
695804 684498 442
379910 467180 449
817012 530754 509
56236 934538 525
333445 536885 470
461686 15950 449
477270 90849 449
29071 385949 443
100721 619038 470
506600 410011 449
736502 59334 509
219477 624736 470
580601 18588 470
536164 836651 509
40068 953388 525
440879 649894 509
948952 808905 525
865186 942435 507
482698 713776 509
4076 202934 383
13226 484886 449
849658 268582 525
257190 268383 407
